+———————————+————————————————+———————————+————————————————————+——————————————+———————————————————+———————————+————————————+
|   Surname | Auto Mark Code | Auto Mark | Required Fuel Mark | Engine Power |       Tank Volume | Fuel Left | Oil Volume |
+———————————+————————————————+———————————+————————————————————+——————————————+———————————————————+———————————+————————————+
| Kochetkov |            124 |   Toyouta |                 95 |          214 |                 3 |  0.000000 |   0.000000 |
+———————————+————————————————+———————————+————————————————————+——————————————+———————————————————+———————————+————————————+
|           |                |           |                    |              | Full fuel cost =  | 7.500000$ |            |
+———————————+————————————————+———————————+————————————————————+——————————————+———————————————————+———————————+————————————+
